<?xml version="1.0" encoding="UTF-8"?>
<svg width="70px" height="70px" viewBox="0 0 70 70" version="1.1" xmlns="http://www.w3.org/2000/svg" xmlns:xlink="http://www.w3.org/1999/xlink">
    <!-- Generator: Sketch 59.1 (86144) - https://sketch.com -->
    <title>connection</title>
    <desc>Created with Sketch.</desc>
    <g id="connection" stroke="none" stroke-width="1" fill="none" fill-rule="evenodd">
        <circle id="Oval" fill="#003B75" cx="35" cy="35" r="35"></circle>
        <path d="M57.1420139,28.3900409 C44.6847835,16.8679508 25.310234,16.8722079 12.8578788,28.3900409 C12.3895877,28.8231759 12.3804553,29.5565115 12.8332969,30.0058513 L15.2408077,32.394342 C15.6725007,32.8232197 16.3671783,32.8323521 16.8157627,32.4210524 C27.0757328,23.0217218 42.922718,23.0195932 53.1848166,32.4210524 C53.6334011,32.8323521 54.3280787,32.8225331 54.7598403,32.394342 L57.1672824,30.0058513 C57.6194374,29.5565115 57.610305,28.8231759 57.1420139,28.3900409 Z M34.9999464,42.2500161 C32.5144329,42.2500161 30.4999571,44.2644919 30.4999571,46.7500054 C30.4999571,49.2355188 32.5144329,51.2499946 34.9999464,51.2499946 C37.4854598,51.2499946 39.4999356,49.2355188 39.4999356,46.7500054 C39.4999356,44.2644919 37.4854598,42.2500161 34.9999464,42.2500161 Z M49.2501413,36.3726192 C49.7345685,36.8008103 49.7507733,37.5460936 49.2895546,38.0003172 L46.8679677,40.3902412 C46.4460937,40.80724 45.7668656,40.8346371 45.3175945,40.4464773 C39.4289367,35.355219 30.5843456,35.343958 24.6816116,40.4464773 C24.2323405,40.8346371 23.5531124,40.8064847 23.1312384,40.3902412 L20.7096514,38.0003172 C20.2491194,37.5460936 20.2645689,36.801497 20.7497514,36.3726192 C28.844802,29.2133956 41.1459583,29.2057052 49.2501413,36.3726192 Z" id="w" fill="#FFFFFF" fill-rule="nonzero"></path>
    </g>
</svg>